/in-union/mof/dor/cbic/cus/tariff/2017/50	50/2017-Cus dt 30.06.2017
/in-union/mof/dor/cbic/cus/tariff/2017/57	57/2017-Cus dt 30.06.2017
/in-union/mof/dor/cbic/cus/tariff/2017/82	82/2017-Cus dt 27.10.2017
